Guia09_1528633_Andriel_Mark_da_Silva_Pinto/saidas e vcds e vvp/Guia_0901.vcd
$date
	Sun Sep 29 13:01:10 2024
$end
$version
	Icarus Verilog
$end
$timescale
	1s
$end
$scope module testbench $end
$var wire 1 ! trigger_signal $end
$var wire 1 " pulse_signal $end
$var wire 1 # clk $end
$var reg 1 $ on $end
$upscope $end
$enddefinitions $end
$comment Show the parameter values. $end
$dumpall
$end
#0
$dumpvars
0$
0#
1"
x!
$end
#3
0"
#6
1"
#9
0"
#12
1"
1#
#15
0"
#18
1"
#20
1$
#21
0"
#24
1"
0#
#27
0"
#30
1"
#33
0"
#36
1"
1#
#39
0"
#42
1"
#45
0"
#48
1"
0#
#51
0"
#54
1"
#57
0"
#60
1"
1#
#63
0"
#66
1"
#69
0"
#72
1"
0#
#75
0"
#78
1"
#80
1!
#81
0"
#84
1"
1#
#87
0"
#90
1"
#93
0"
#96
1"
0#
#99
0"
#102
1"
#105
0"
#108
1"
1#
#111
0"
#114
1"
#117
0"
#120
1"
0#
#123
0"
#126
1"
#129
0"
#132
1"
1#
#135
0"
#138
1"
#140
0!
#141
0"
#144
1"
0#
#147
0"
#150
1"
#153
0"
#156
1"
1#
#159
0"
#162
1"
#165
0"
#168
1"
0#
#171
0"
#174
1"
#177
0"
#180
1"
1#
#183
0"
#186
1"
#189
0"
#192
1"
0#
#195
0"
#198
1"
#201
0"
#204
1"
1#
#207
0"
#210
1"
#213
0"
#216
1"
0#
1!
#219
0"
#222
1"
#225
0"
#228
1"
1#
#231
0"
#234
1"
#237
0"
#240
1"
0#
#243
0"
#246
1"
#249
0"
#252
1"
1#
#255
0"
#258
1"
#261
0"
#264
1"
0#
#267
0"
#270
1"
#273
0"
#276
1"
1#
0!
#279
0"
#282
1"
#285
0"
#288
1"
0#
#291
0"
#294
1"
#297
0"
#300
1"
1#
#303
0"
#306
1"
#309
0"
#312
1"
0#
#315
0"
#318
1"
#320
0$
#321
0"
#324
1"
1#
#327
0"
#330
1"
#333
0"
#336
1"
0#
1!
#339
0"
#342
1"
#345
0"
#348
1"
1#
#351
0"
#354
1"
#357
0"
#360
1"
0#
#363
0"
#366
1"
#369
0"
#372
1"
1#
#375
0"
#378
1"
#381
0"
#384
1"
0#
#387
0"
#390
1"
#393
0"
#396
1"
1#
0!
#399
0"
#402
1"
#405
0"
#408
1"
0#
#411
0"
#414
1"
#417
0"
#420
1"
1#
#423
0"
#426
1"
#429
0"
#432
1"
0#
#435
0"
#438
1"
#441
0"
#444
1"
1#
#447
0"
#450
1"
#453
0"
#456
1"
0#
#459
0"
#462
1"
#465
0"
#468
1"
1#
#471
0"
#474
1"
#477
0"
#480
1"
0#
#483
0"
#486
1"
#489
0"
#492
1"
1#
#495
0"
#498
1"
#501
0"
#504
1"
0#
#507
0"
#510
1"
#513
0"
#516
1"
1#
#519
0"
#522
1"
#525
0"
#528
1"
0#
#531
0"
#534
1"
#537
0"
#540
1"
1#
#543
0"
#546
1"
#549
0"
#552
1"
0#
#555
0"
#558
1"
#561
0"
#564
1"
1#
#567
0"
#570
1"
#573
0"
#576
1"
0#
#579
0"
#582
1"
#585
0"
#588
1"
1#
#591
0"
#594
1"
#597
0"
#600
1"
0#
#603
0"
#606
1"
#609
0"
#612
1"
1#
#615
0"
#618
1"
#621
0"
#624
1"
0#
#627
0"
#630
1"
#633
0"
#636
1"
1#
#639
0"
#642
1"
#645
0"
#648
1"
0#
#651
0"
#654
1"
#657
0"
#660
1"
1#
#663
0"
#666
1"
#669
0"
#672
1"
0#
#675
0"
#678
1"
#681
0"
#684
1"
1#
#687
0"
#690
1"
#693
0"
#696
1"
0#
#699
0"
#702
1"
#705
0"
#708
1"
1#
#711
0"
#714
1"
#717
0"
#720
1"
0#
#723
0"
#726
1"
#729
0"
#732
1"
1#
#735
0"
#738
1"
#741
0"
#744
1"
0#
#747
0"
#750
1"
#753
0"
#756
1"
1#
#759
0"
#762
1"
#765
0"
#768
1"
0#
#771
0"
#774
1"
#777
0"
#780
1"
1#
#783
0"
#786
1"
#789
0"
#792
1"
0#
#795
0"
#798
1"
#801
0"
#804
1"
1#
#807
0"
#810
1"
#813
0"
#816
1"
0#
#819
0"
