Guia09_1528633_Andriel_Mark_da_Silva_Pinto/saidas e vcds e vvp/Guia_0905.vcd
$date
	Sun Sep 29 13:47:50 2024
$end
$version
	Icarus Verilog
$end
$timescale
	1s
$end
$scope module Guia_0905 $end
$var wire 1 ! clock $end
$upscope $end
$scope module Guia_0905 $end
$var wire 1 " pulse_signal $end
$upscope $end
$enddefinitions $end
$comment Show the parameter values. $end
$dumpall
$end
#0
$dumpvars
x"
0!
$end
#12
1"
1!
#16
0"
#24
0!
#36
1"
1!
#40
0"
#48
0!
#60
1"
1!
#64
0"
#72
0!
#84
1"
1!
#88
0"
#96
0!
#108
1"
1!
#112
0"
