Guia09_1528633_Andriel_Mark_da_Silva_Pinto/saidas e vcds e vvp/Guia_0906.vcd
$date
	Sun Sep 29 13:48:05 2024
$end
$version
	Icarus Verilog
$end
$timescale
	1s
$end
$scope module Guia_0906 $end
$var wire 1 ! clock $end
$upscope $end
$scope module Guia_0906 $end
$var wire 1 " pulse_signal $end
$upscope $end
$enddefinitions $end
$comment Show the parameter values. $end
$dumpall
$end
#0
$dumpvars
0"
0!
$end
#12
1!
#24
1"
0!
#29
0"
#36
1!
#48
1"
0!
#53
0"
#60
1!
#72
1"
0!
#77
0"
#84
1!
#96
1"
0!
#101
0"
#108
1!
#120
1"
0!
